%!PS-Adobe-2.0 EPSF-2.0
%%BoundingBox:  0 0 567 612
%%Title: /data/vami/projects/PilotBlade/Approval_plots/PilotBlade_9ResidualDY.eps: Track hit residual on pixel pilot blade (radial direction)
%%Creator: ROOT Version 6.02/05
%%CreationDate: Tue Aug 25 18:41:24 2015
%%EndComments
%%BeginProlog
80 dict begin
/s {stroke} def /l {lineto} def /m {moveto} def /t {translate} def
/r {rotate} def /rl {roll}  def /R {repeat} def
/d {rlineto} def /rm {rmoveto} def /gr {grestore} def /f {eofill} def
/c {setrgbcolor} def /black {0 setgray} def /sd {setdash} def
/cl {closepath} def /sf {scalefont setfont} def /lw {setlinewidth} def
/box {m dup 0 exch d exch 0 d 0 exch neg d cl} def
/NC{systemdict begin initclip end}def/C{NC box clip newpath}def
/bl {box s} def /bf {box gsave f grestore s} def /Y { 0 exch d} def /X { 0 d} def 
/K {{pop pop 0 moveto} exch kshow} bind def
/ita {/ang 15 def gsave [1 0 ang dup sin exch cos div 1 0 0] concat} def 
/mp {newpath /y exch def /x exch def} def
/side {[w .77 mul w .23 mul] .385 w mul sd w 0 l currentpoint t -144 r} def
/mr {mp x y w2 0 360 arc} def /m24 {mr s} def /m20 {mr f} def
/mb {mp x y w2 add m w2 neg 0 d 0 w neg d w 0 d 0 w d cl} def
/mt {mp x y w2 add m w2 neg w neg d w 0 d cl} def
/m21 {mb f} def /m25 {mb s} def /m22 {mt f} def /m26{mt s} def
/m23 {mp x y w2 sub m w2 w d w neg 0 d cl f} def
/m27 {mp x y w2 add m w3 neg w2 neg d w3 w2 neg d w3 w2 d cl s} def
/m28 {mp x w2 sub y w2 sub w3 add m w3 0 d  0 w3 neg d w3 0 d 0 w3 d w3 0 d  0 w3 d w3 neg 0 d 0 w3 d w3 neg 0 d 0 w3 neg d w3 neg 0 d cl s } def
/m29 {mp gsave x w2 sub y w2 add w3 sub m currentpoint t 4 {side} repeat cl fill gr} def
/m30 {mp gsave x w2 sub y w2 add w3 sub m currentpoint t 4 {side} repeat cl s gr} def
/m31 {mp x y w2 sub m 0 w d x w2 sub y m w 0 d x w2 sub y w2 add m w w neg d x w2 sub y w2 sub m w w d s} def
/m32 {mp x y w2 sub m w2 w d w neg 0 d cl s} def
/m33 {mp x y w2 add m w3 neg w2 neg d w3 w2 neg d w3 w2 d cl f} def
/m34 {mp x w2 sub y w2 sub w3 add m w3 0 d  0 w3 neg d w3 0 d 0 w3 d w3 0 d  0 w3 d w3 neg 0 d 0 w3 d w3 neg 0 d 0 w3 neg d w3 neg 0 d cl f } def
/m2 {mp x y w2 sub m 0 w d x w2 sub y m w 0 d s} def
/m5 {mp x w2 sub y w2 sub m w w d x w2 sub y w2 add m w w neg d s} def
/reEncode {exch findfont dup length dict begin {1 index /FID eq  {pop pop} {def} ifelse } forall /Encoding exch def currentdict end dup /FontName get exch definefont pop } def [/Times-Bold /Times-Italic /Times-BoldItalic /Helvetica /Helvetica-Oblique
 /Helvetica-Bold /Helvetica-BoldOblique /Courier /Courier-Oblique /Courier-Bold /Courier-BoldOblique /Times-Roman /AvantGarde-Book /AvantGarde-BookOblique /AvantGarde-Demi /AvantGarde-DemiOblique /Bookman-Demi /Bookman-DemiItalic /Bookman-Light
 /Bookman-LightItalic /Helvetica-Narrow /Helvetica-Narrow-Bold /Helvetica-Narrow-BoldOblique /Helvetica-Narrow-Oblique /NewCenturySchlbk-Roman /NewCenturySchlbk-Bold /NewCenturySchlbk-BoldItalic /NewCenturySchlbk-Italic /Palatino-Bold
 /Palatino-BoldItalic /Palatino-Italic /Palatino-Roman ] {ISOLatin1Encoding reEncode } forall
%%EndProlog
%%BeginSetup
%%EndSetup
newpath  gsave  .25 .25 scale  gsave  0 0 t black[  ] 0 sd 3 lw 1 1 1 c 2268 2450 0 0 bf black 1 1 1 c 2025 2025 162 243 bf black 2025 2025 162 243 bl 1 1 1 c 2025 2025 162 243 bf black 2025 2025 162 243 bl 162 243 m 2025 X s[ 4 8] 0 sd 356 2268 m
 -2025 Y s 561 2268 m -2025 Y s 765 2268 m -2025 Y s 970 2268 m -2025 Y s 1174 2268 m -2025 Y s 1379 2268 m -2025 Y s 1583 2268 m -2025 Y s 1788 2268 m -2025 Y s 1992 2268 m -2025 Y s 356 2268 m -2025 Y s 1992 2268 m -2025 Y s[  ] 0 sd 162 243 m 2025
 Y s[ 4 8] 0 sd 2187 455 m -2025 X s 2187 668 m -2025 X s 2187 882 m -2025 X s 2187 1095 m -2025 X s 2187 1308 m -2025 X s 2187 1521 m -2025 X s 2187 1735 m -2025 X s 2187 1948 m -2025 X s 2187 2161 m -2025 X s 2187 455 m -2025 X s 2187 2161 m -2025
 X s 0 0 0.6 c[  ] 0 sd 6 lw 1 1 1 c black 0 0 0.6 c 162 253 m 40 X -10 Y 142 X 31 Y 20 X -31 Y 21 X 20 Y 20 X -10 Y 20 X 10 Y 20 X -20 Y 21 X 10 Y 81 X 21 Y 20 X -11 Y 40 X 22 Y 21 X 21 Y 20 X -11 Y 20 X -10 Y 20 X 53 Y 21 X -43 Y 20 X 32 Y 40 X 54
 Y 21 X -75 Y 20 X 32 Y 20 X 43 Y 20 X -11 Y 21 X 96 Y 20 X 106 Y 20 X -53 Y 20 X 139 Y 21 X 32 Y 20 X 32 Y 20 X 181 Y 20 X 128 Y 21 X 11 Y 20 X 223 Y 20 X 128 Y 20 X 224 Y 21 X 128 Y 20 X 203 Y 20 X 96 Y 20 X -32 Y 21 X -181 Y 20 X -395 Y 20 X 181 Y
 20 X -458 Y 41 X -224 Y 20 X -11 Y 20 X -192 Y 21 X -21 Y 20 X -171 Y 20 X -74 Y 20 X -85 Y 21 X 21 Y 20 X 53 Y 20 X -96 Y 41 X -74 Y 20 X 21 Y 20 X 21 Y 20 X 54 Y 21 X -118 Y 20 X 11 Y 20 X 11 Y 20 X -22 Y 21 X -20 Y 20 X 10 Y 40 X -10 Y 21 X 20 Y
 20 X -20 Y 101 X 20 Y 20 X -20 Y 41 X 20 Y 20 X -20 Y 61 X 10 Y 20 X -10 Y 40 X 10 Y 21 X -10 Y 81 X s black 3 lw 162 243 m 2025 X s
 gsave  2268 2450 0 0 C 1850.62 48.5939 t 0 r /Helvetica findfont 121.485 sf 0 0 m (Y [cm]) show NC gr 
 gsave  2268 2450 0 0 C 1773.68 48.5939 t 0 r /Symbol findfont 121.485 sf 0 0 m (D) show NC gr 
 gsave  2268 2450 0 0 C 1267.49 48.5939 t 0 r /Helvetica findfont 121.485 sf 0 0 m (Residual ) show NC gr  356 309 m -66 Y s 407 276 m -33 Y s 459 276 m -33 Y s 510 276 m -33 Y s 561 309 m -66 Y s 612 276 m -33 Y s 663 276 m -33 Y s 714 276 m -33 Y s
 765 309 m -66 Y s 816 276 m -33 Y s 868 276 m -33 Y s 919 276 m -33 Y s 970 309 m -66 Y s 1021 276 m -33 Y s 1072 276 m -33 Y s 1123 276 m -33 Y s 1174 309 m -66 Y s 1225 276 m -33 Y s 1277 276 m -33 Y s 1328 276 m -33 Y s 1379 309 m -66 Y s 1430
 276 m -33 Y s 1481 276 m -33 Y s 1532 276 m -33 Y s 1583 309 m -66 Y s 1635 276 m -33 Y s 1686 276 m -33 Y s 1737 276 m -33 Y s 1788 309 m -66 Y s 1839 276 m -33 Y s 1890 276 m -33 Y s 1941 276 m -33 Y s 1992 309 m -66 Y s 356 309 m -66 Y s 305 276
 m -33 Y s 254 276 m -33 Y s 203 276 m -33 Y s 1992 309 m -66 Y s 2044 276 m -33 Y s 2095 276 m -33 Y s 2146 276 m -33 Y s
 gsave  2268 2450 0 0 C 295.613 161.98 t 0 r /Helvetica findfont 76.9404 sf 0 0 m (0.08) show NC gr 
 gsave  2268 2450 0 0 C 255.118 161.98 t 0 r /Symbol findfont 76.9404 sf 0 0 m (-) show NC gr 
 gsave  2268 2450 0 0 C 502.137 161.98 t 0 r /Helvetica findfont 76.9404 sf 0 0 m (0.06) show NC gr 
 gsave  2268 2450 0 0 C 461.642 161.98 t 0 r /Symbol findfont 76.9404 sf 0 0 m (-) show NC gr 
 gsave  2268 2450 0 0 C 704.612 161.98 t 0 r /Helvetica findfont 76.9404 sf 0 0 m (0.04) show NC gr 
 gsave  2268 2450 0 0 C 664.117 161.98 t 0 r /Symbol findfont 76.9404 sf 0 0 m (-) show NC gr 
 gsave  2268 2450 0 0 C 911.136 161.98 t 0 r /Helvetica findfont 76.9404 sf 0 0 m (0.02) show NC gr 
 gsave  2268 2450 0 0 C 870.641 161.98 t 0 r /Symbol findfont 76.9404 sf 0 0 m (-) show NC gr 
 gsave  2268 2450 0 0 C 1154.11 161.98 t 0 r /Helvetica findfont 76.9404 sf 0 0 m (0) show NC gr 
 gsave  2268 2450 0 0 C 1299.89 161.98 t 0 r /Helvetica findfont 76.9404 sf 0 0 m (0.02) show NC gr 
 gsave  2268 2450 0 0 C 1506.41 161.98 t 0 r /Helvetica findfont 76.9404 sf 0 0 m (0.04) show NC gr 
 gsave  2268 2450 0 0 C 1708.89 161.98 t 0 r /Helvetica findfont 76.9404 sf 0 0 m (0.06) show NC gr 
 gsave  2268 2450 0 0 C 1915.41 161.98 t 0 r /Helvetica findfont 76.9404 sf 0 0 m (0.08) show NC gr  162 243 m 2025 Y s 218 455 m -56 X s 190 508 m -28 X s 190 562 m -28 X s 190 615 m -28 X s 218 668 m -56 X s 190 722 m -28 X s 190 775 m -28 X s 190
 828 m -28 X s 218 882 m -56 X s 190 935 m -28 X s 190 988 m -28 X s 190 1042 m -28 X s 218 1095 m -56 X s 190 1148 m -28 X s 190 1201 m -28 X s 190 1255 m -28 X s 218 1308 m -56 X s 190 1361 m -28 X s 190 1415 m -28 X s 190 1468 m -28 X s 218 1521 m
 -56 X s 190 1575 m -28 X s 190 1628 m -28 X s 190 1681 m -28 X s 218 1735 m -56 X s 190 1788 m -28 X s 190 1841 m -28 X s 190 1895 m -28 X s 218 1948 m -56 X s 190 2001 m -28 X s 190 2054 m -28 X s 190 2108 m -28 X s 218 2161 m -56 X s 218 455 m -56
 X s 190 402 m -28 X s 190 349 m -28 X s 190 295 m -28 X s 218 2161 m -56 X s 190 2214 m -28 X s
 gsave  2268 2450 0 0 C 64.7919 429.246 t 0 r /Helvetica findfont 76.9404 sf 0 0 m (20) show NC gr 
 gsave  2268 2450 0 0 C 64.7919 643.87 t 0 r /Helvetica findfont 76.9404 sf 0 0 m (40) show NC gr 
 gsave  2268 2450 0 0 C 64.7919 854.443 t 0 r /Helvetica findfont 76.9404 sf 0 0 m (60) show NC gr 
 gsave  2268 2450 0 0 C 64.7919 1069.07 t 0 r /Helvetica findfont 76.9404 sf 0 0 m (80) show NC gr 
 gsave  2268 2450 0 0 C 24.297 1283.69 t 0 r /Helvetica findfont 76.9404 sf 0 0 m (100) show NC gr 
 gsave  2268 2450 0 0 C 24.297 1494.26 t 0 r /Helvetica findfont 76.9404 sf 0 0 m (120) show NC gr 
 gsave  2268 2450 0 0 C 24.297 1708.89 t 0 r /Helvetica findfont 76.9404 sf 0 0 m (140) show NC gr 
 gsave  2268 2450 0 0 C 24.297 1923.51 t 0 r /Helvetica findfont 76.9404 sf 0 0 m (160) show NC gr 
 gsave  2268 2450 0 0 C 24.297 2134.08 t 0 r /Helvetica findfont 76.9404 sf 0 0 m (180) show NC gr  1 1 1 c black
 gsave  2268 2450 0 0 C 684.364 2344.66 t 0 r /Helvetica findfont 64.7919 sf 0 0 m (Track hit residual on pixel pilot blade \(radial direction\)) show NC gr 
 gsave  2268 2450 0 0 C 1490.21 1951.86 t 0 r /Helvetica-Bold findfont 85.0394 sf 0 0 m (RMS = 0.01729) show NC gr 
 gsave  2268 2450 0 0 C 1198.65 2113.84 t 0 r /Helvetica-Oblique findfont 85.0394 sf 0 0 m (Preliminary) show NC gr 
 gsave  2268 2450 0 0 C 352.306 2113.84 t 0 r /Helvetica-Bold findfont 105.287 sf 0 0 m (CMS Simulation ) show NC gr 
 gr  gr showpage
end
%%EOF
