%!PS-Adobe-2.0 EPSF-2.0
%%BoundingBox:  0 0 567 553
%%Title: /data/vami/projects/PilotBlade/Approval_plots/PilotBlade_5ClusterCharge.eps: Normalized cluster charge distribution (Pilot Blade)
%%Creator: ROOT Version 6.02/05
%%CreationDate: Mon Aug 24 16:45:23 2015
%%EndComments
%%BeginProlog
80 dict begin
/s {stroke} def /l {lineto} def /m {moveto} def /t {translate} def
/r {rotate} def /rl {roll}  def /R {repeat} def
/d {rlineto} def /rm {rmoveto} def /gr {grestore} def /f {eofill} def
/c {setrgbcolor} def /black {0 setgray} def /sd {setdash} def
/cl {closepath} def /sf {scalefont setfont} def /lw {setlinewidth} def
/box {m dup 0 exch d exch 0 d 0 exch neg d cl} def
/NC{systemdict begin initclip end}def/C{NC box clip newpath}def
/bl {box s} def /bf {box gsave f grestore s} def /Y { 0 exch d} def /X { 0 d} def 
/K {{pop pop 0 moveto} exch kshow} bind def
/ita {/ang 15 def gsave [1 0 ang dup sin exch cos div 1 0 0] concat} def 
/mp {newpath /y exch def /x exch def} def
/side {[w .77 mul w .23 mul] .385 w mul sd w 0 l currentpoint t -144 r} def
/mr {mp x y w2 0 360 arc} def /m24 {mr s} def /m20 {mr f} def
/mb {mp x y w2 add m w2 neg 0 d 0 w neg d w 0 d 0 w d cl} def
/mt {mp x y w2 add m w2 neg w neg d w 0 d cl} def
/m21 {mb f} def /m25 {mb s} def /m22 {mt f} def /m26{mt s} def
/m23 {mp x y w2 sub m w2 w d w neg 0 d cl f} def
/m27 {mp x y w2 add m w3 neg w2 neg d w3 w2 neg d w3 w2 d cl s} def
/m28 {mp x w2 sub y w2 sub w3 add m w3 0 d  0 w3 neg d w3 0 d 0 w3 d w3 0 d  0 w3 d w3 neg 0 d 0 w3 d w3 neg 0 d 0 w3 neg d w3 neg 0 d cl s } def
/m29 {mp gsave x w2 sub y w2 add w3 sub m currentpoint t 4 {side} repeat cl fill gr} def
/m30 {mp gsave x w2 sub y w2 add w3 sub m currentpoint t 4 {side} repeat cl s gr} def
/m31 {mp x y w2 sub m 0 w d x w2 sub y m w 0 d x w2 sub y w2 add m w w neg d x w2 sub y w2 sub m w w d s} def
/m32 {mp x y w2 sub m w2 w d w neg 0 d cl s} def
/m33 {mp x y w2 add m w3 neg w2 neg d w3 w2 neg d w3 w2 d cl f} def
/m34 {mp x w2 sub y w2 sub w3 add m w3 0 d  0 w3 neg d w3 0 d 0 w3 d w3 0 d  0 w3 d w3 neg 0 d 0 w3 d w3 neg 0 d 0 w3 neg d w3 neg 0 d cl f } def
/m2 {mp x y w2 sub m 0 w d x w2 sub y m w 0 d s} def
/m5 {mp x w2 sub y w2 sub m w w d x w2 sub y w2 add m w w neg d s} def
/reEncode {exch findfont dup length dict begin {1 index /FID eq  {pop pop} {def} ifelse } forall /Encoding exch def currentdict end dup /FontName get exch definefont pop } def [/Times-Bold /Times-Italic /Times-BoldItalic /Helvetica /Helvetica-Oblique
 /Helvetica-Bold /Helvetica-BoldOblique /Courier /Courier-Oblique /Courier-Bold /Courier-BoldOblique /Times-Roman /AvantGarde-Book /AvantGarde-BookOblique /AvantGarde-Demi /AvantGarde-DemiOblique /Bookman-Demi /Bookman-DemiItalic /Bookman-Light
 /Bookman-LightItalic /Helvetica-Narrow /Helvetica-Narrow-Bold /Helvetica-Narrow-BoldOblique /Helvetica-Narrow-Oblique /NewCenturySchlbk-Roman /NewCenturySchlbk-Bold /NewCenturySchlbk-BoldItalic /NewCenturySchlbk-Italic /Palatino-Bold
 /Palatino-BoldItalic /Palatino-Italic /Palatino-Roman ] {ISOLatin1Encoding reEncode } forall
%%EndProlog
%%BeginSetup
%%EndSetup
newpath  gsave  .25 .25 scale  gsave  0 0 t black[  ] 0 sd 3 lw 1 1 1 c 2268 2213 0 0 bf black 1 1 1 c 1829 1829 366 219 bf black 1829 1829 366 219 bl 1 1 1 c 1829 1829 366 219 bf black 1829 1829 366 219 bl 366 219 m 1829 X s[ 4 8] 0 sd 366 2048 m
 -1829 Y s 594 2048 m -1829 Y s 823 2048 m -1829 Y s 1052 2048 m -1829 Y s 1280 2048 m -1829 Y s 1509 2048 m -1829 Y s 1737 2048 m -1829 Y s 1966 2048 m -1829 Y s 2195 2048 m -1829 Y s[  ] 0 sd 366 219 m 1829 Y s[ 4 8] 0 sd 2195 219 m -1829 X s 2195
 524 m -1829 X s 2195 829 m -1829 X s 2195 1134 m -1829 X s 2195 1439 m -1829 X s 2195 1743 m -1829 X s 2195 2048 m -1829 X s[  ] 0 sd 6 lw 1 1 1 c black 366 219 m 114 X 13 Y 23 X 15 Y 23 X -6 Y 23 X -3 Y 23 X 39 Y 22 X 46 Y 23 X 82 Y 23 X 98 Y 23 X
 104 Y 23 X 323 Y 23 X 341 Y 23 X 363 Y 22 X 161 Y 23 X -155 Y 23 X -22 Y 23 X -164 Y 23 X -143 Y 23 X -208 Y 23 X -201 Y 22 X -158 Y 23 X -110 Y 23 X -125 Y 23 X 34 Y 23 X -25 Y 23 X -18 Y 23 X -137 Y 22 X -19 Y 23 X -21 Y 23 X 3 Y 23 X 46 Y 46 X
 -61 Y 23 X -31 Y 22 X -9 Y 23 X -27 Y 23 X 6 Y 23 X 18 Y 23 X -6 Y 23 X 6 Y 23 X -21 Y 68 X -18 Y 23 X 12 Y 46 X -15 Y 23 X 18 Y 22 X -6 Y 23 X -6 Y 69 X -6 Y 23 X 3 Y 23 X 3 Y 23 X -6 Y 22 X 6 Y 23 X -6 Y 23 X 3 Y 23 X 12 Y 23 X -15 Y 23 X 9 Y 23 X
 -12 Y 22 X 3 Y 69 X 9 Y 23 X -12 Y 46 X -4 Y 45 X 7 Y 23 X -7 Y 23 X 4 Y 23 X -4 Y 46 X s 3 lw 366 219 m 1829 X s
 gsave  2268 2213 0 0 C 1247.24 40.2337 t 0 r /Helvetica findfont 109.728 sf 0 0 m ( Cluster charge [ke]) show NC gr  366 273 m -54 Y s 411 246 m -27 Y s 457 246 m -27 Y s 503 246 m -27 Y s 549 246 m -27 Y s 594 273 m -54 Y s 640 246 m -27 Y s 686
 246 m -27 Y s 732 246 m -27 Y s 777 246 m -27 Y s 823 273 m -54 Y s 869 246 m -27 Y s 914 246 m -27 Y s 960 246 m -27 Y s 1006 246 m -27 Y s 1052 273 m -54 Y s 1097 246 m -27 Y s 1143 246 m -27 Y s 1189 246 m -27 Y s 1234 246 m -27 Y s 1280 273 m
 -54 Y s 1326 246 m -27 Y s 1372 246 m -27 Y s 1417 246 m -27 Y s 1463 246 m -27 Y s 1509 273 m -54 Y s 1554 246 m -27 Y s 1600 246 m -27 Y s 1646 246 m -27 Y s 1692 246 m -27 Y s 1737 273 m -54 Y s 1783 246 m -27 Y s 1829 246 m -27 Y s 1875 246 m
 -27 Y s 1920 246 m -27 Y s 1966 273 m -54 Y s 2012 246 m -27 Y s 2057 246 m -27 Y s 2103 246 m -27 Y s 2149 246 m -27 Y s 2195 273 m -54 Y s
 gsave  2268 2213 0 0 C 347.473 149.962 t 0 r /Helvetica findfont 69.4945 sf 0 0 m (0) show NC gr 
 gsave  2268 2213 0 0 C 552.299 149.962 t 0 r /Helvetica findfont 69.4945 sf 0 0 m (10) show NC gr 
 gsave  2268 2213 0 0 C 782.728 149.962 t 0 r /Helvetica findfont 69.4945 sf 0 0 m (20) show NC gr 
 gsave  2268 2213 0 0 C 1009.5 149.962 t 0 r /Helvetica findfont 69.4945 sf 0 0 m (30) show NC gr 
 gsave  2268 2213 0 0 C 1239.93 149.962 t 0 r /Helvetica findfont 69.4945 sf 0 0 m (40) show NC gr 
 gsave  2268 2213 0 0 C 1466.7 149.962 t 0 r /Helvetica findfont 69.4945 sf 0 0 m (50) show NC gr 
 gsave  2268 2213 0 0 C 1697.13 149.962 t 0 r /Helvetica findfont 69.4945 sf 0 0 m (60) show NC gr 
 gsave  2268 2213 0 0 C 1923.9 149.962 t 0 r /Helvetica findfont 69.4945 sf 0 0 m (70) show NC gr 
 gsave  2268 2213 0 0 C 2154.33 149.962 t 0 r /Helvetica findfont 69.4945 sf 0 0 m (80) show NC gr  366 219 m 1829 Y s
 gsave  2268 2213 0 0 C 113.386 1411.84 t 90 r /Helvetica findfont 109.728 sf 0 0 m (Clusters/1 ke) show NC gr  422 219 m -56 X s 394 280 m -28 X s 394 341 m -28 X s 394 402 m -28 X s 394 463 m -28 X s 422 524 m -56 X s 394 585 m -28 X s 394 646 m
 -28 X s 394 707 m -28 X s 394 768 m -28 X s 422 829 m -56 X s 394 890 m -28 X s 394 951 m -28 X s 394 1012 m -28 X s 394 1073 m -28 X s 422 1134 m -56 X s 394 1195 m -28 X s 394 1256 m -28 X s 394 1317 m -28 X s 394 1378 m -28 X s 422 1439 m -56 X s
 394 1500 m -28 X s 394 1561 m -28 X s 394 1622 m -28 X s 394 1682 m -28 X s 422 1743 m -56 X s 394 1804 m -28 X s 394 1865 m -28 X s 394 1926 m -28 X s 394 1987 m -28 X s 422 2048 m -56 X s
 gsave  2268 2213 0 0 C 314.554 193.853 t 0 r /Helvetica findfont 69.4945 sf 0 0 m (0) show NC gr 
 gsave  2268 2213 0 0 C 237.744 501.092 t 0 r /Helvetica findfont 69.4945 sf 0 0 m (100) show NC gr 
 gsave  2268 2213 0 0 C 237.744 804.674 t 0 r /Helvetica findfont 69.4945 sf 0 0 m (200) show NC gr 
 gsave  2268 2213 0 0 C 237.744 1108.26 t 0 r /Helvetica findfont 69.4945 sf 0 0 m (300) show NC gr 
 gsave  2268 2213 0 0 C 237.744 1415.49 t 0 r /Helvetica findfont 69.4945 sf 0 0 m (400) show NC gr 
 gsave  2268 2213 0 0 C 237.744 1719.08 t 0 r /Helvetica findfont 69.4945 sf 0 0 m (500) show NC gr 
 gsave  2268 2213 0 0 C 237.744 2022.66 t 0 r /Helvetica findfont 69.4945 sf 0 0 m (600) show NC gr  6 lw 1 1 1 c black 366 219 m 114 X 13 Y 23 X 15 Y 23 X -6 Y 23 X -3 Y 23 X 39 Y 22 X 46 Y 23 X 82 Y 23 X 98 Y 23 X 104 Y 23 X 323 Y 23 X 341 Y 23 X
 363 Y 22 X 161 Y 23 X -155 Y 23 X -22 Y 23 X -164 Y 23 X -143 Y 23 X -208 Y 23 X -201 Y 22 X -158 Y 23 X -110 Y 23 X -125 Y 23 X 34 Y 23 X -25 Y 23 X -18 Y 23 X -137 Y 22 X -19 Y 23 X -21 Y 23 X 3 Y 23 X 46 Y 46 X -61 Y 23 X -31 Y 22 X -9 Y 23 X -27
 Y 23 X 6 Y 23 X 18 Y 23 X -6 Y 23 X 6 Y 23 X -21 Y 68 X -18 Y 23 X 12 Y 46 X -15 Y 23 X 18 Y 22 X -6 Y 23 X -6 Y 69 X -6 Y 23 X 3 Y 23 X 3 Y 23 X -6 Y 22 X 6 Y 23 X -6 Y 23 X 3 Y 23 X 12 Y 23 X -15 Y 23 X 9 Y 23 X -12 Y 22 X 3 Y 69 X 9 Y 23 X -12 Y
 46 X -4 Y 45 X 7 Y 23 X -7 Y 23 X 4 Y 23 X -4 Y 46 X s 1 1 1 c black
 gsave  2268 2213 0 0 C 709.576 2114.1 t 0 r /Helvetica findfont 65.8369 sf 0 0 m (Normalized cluster charge distribution \(Pilot Blade\)) show NC gr 
 gsave  2268 2213 0 0 C 1722.73 1784.91 t 0 r /Helvetica-Oblique findfont 65.8369 sf 0 0 m (Preliminary) show NC gr 
 gsave  2268 2213 0 0 C 1049.73 1784.91 t 0 r /Helvetica-Bold findfont 84.125 sf 0 0 m (CMS Simulation ) show NC gr 
 gr  gr showpage
end
%%EOF
